<?xml version="1.0" encoding="UTF-8"?>
<svg width="12px" height="36px" viewBox="0 0 12 36" version="1.1" xmlns="http://www.w3.org/2000/svg" xmlns:xlink="http://www.w3.org/1999/xlink">
    <!-- Generator: Sketch 51.3 (57544) - http://www.bohemiancoding.com/sketch -->
    <title>dislike</title>
    <desc>Created with Sketch.</desc>
    <defs></defs>
    <g id="Desktop" stroke="none" stroke-width="1" fill="none" fill-rule="evenodd">
        <g id="06-article-standard" transform="translate(-215.000000, -3048.000000)">
            <g id="dislike" transform="translate(215.000000, 3048.000000)">
                <path d="M12,6.42857143 L11.9732143,6.49553571 L11.9732143,6.53571429 L11.9464286,6.58928571 C11.8214279,7.10714545 11.526788,7.45089201 11.0625,7.62053571 C10.8482132,7.69196464 10.6250012,7.72767857 10.3928571,7.72767857 L8.0625,7.72767857 C8.08928585,7.92410813 8.12053554,8.10714201 8.15625,8.27678571 C8.27232201,8.87500299 8.2500008,9.41071192 8.08928571,9.88392857 C8.00892817,10.0982154 7.90178638,10.388391 7.76785714,10.7544643 L7.64732143,11.0758929 C7.50446357,11.4330375 7.26339455,11.6874992 6.92410714,11.8392857 C6.66517728,11.9464291 6.40178705,12 6.13392857,12 C5.83035563,12 5.53571571,11.9241079 5.25,11.7723214 C4.79464058,11.5312488 4.57142853,11.1607168 4.58035714,10.6607143 C4.58928576,10.4553561 4.59375,10.2946434 4.59375,10.1785714 C4.60267862,9.80356955 4.6116071,9.52678661 4.62053571,9.34821429 C4.62053571,9.30357121 4.61160723,9.25892879 4.59375,9.21428571 C4.56696415,9.16964263 4.52008962,9.08928629 4.453125,8.97321429 C4.38616038,8.85714228 4.33482161,8.76785746 4.29910714,8.70535714 C3.98660558,8.16071156 3.7500008,7.75892987 3.58928571,7.5 C3.48214232,7.33928491 3.328126,7.20312556 3.12723214,7.09151786 C2.92633828,6.97991016 2.78125045,6.91517866 2.69196429,6.89732143 C2.60267813,6.8794642 2.53125027,6.86607147 2.47767857,6.85714286 L0.964285714,6.85714286 C0.696427232,6.85714286 0.468750938,6.76339379 0.28125,6.57589286 C0.0937490625,6.38839192 0,6.16071562 0,5.89285714 L0,0.964285714 C0,0.696427232 0.0937490625,0.468750938 0.28125,0.28125 C0.468750938,0.0937490625 0.696427232,0 0.964285714,0 L9.02678571,0 C9.40178759,0 9.72321295,0.0446424107 9.99107143,0.133928571 C10.3482161,0.25000058 10.6361596,0.446427187 10.8549107,0.723214286 C11.0736618,1.00000138 11.1964284,1.32142674 11.2232143,1.6875 C11.2500001,1.90178679 11.2410717,2.10714187 11.1964286,2.30357143 C11.419644,2.66071607 11.5223215,3.03124808 11.5044643,3.41517857 C11.4955357,3.53125058 11.4732145,3.64285661 11.4375,3.75 C11.6607154,4.07143018 11.7633929,4.4107125 11.7455357,4.76785714 C11.7455357,4.910715 11.7232145,5.04464223 11.6785714,5.16964286 C11.8035721,5.34821518 11.8928569,5.54464179 11.9464286,5.75892857 L12,5.83928571 L12,6.42857143 Z M2.46428571,5.89285714 L2.46428571,0.964285714 L0.964285714,0.964285714 L0.964285714,5.89285714 L2.46428571,5.89285714 Z M11.0357143,6.28125 L11.0357143,6.09375 L11.0089286,5.98660714 C10.9821427,5.88839237 10.9419646,5.7946433 10.8883929,5.70535714 L10.6339286,5.33035714 L10.7544643,4.90178571 C10.7723215,4.84821402 10.78125,4.79017888 10.78125,4.72767857 C10.7901786,4.5758921 10.741072,4.42857214 10.6339286,4.28571429 L10.3928571,3.91071429 L10.5133929,3.46875 C10.5312501,3.43303554 10.5401786,3.39285737 10.5401786,3.34821429 C10.5491072,3.17857058 10.4955363,3.00446518 10.3794643,2.82589286 L10.1651786,2.49107143 L10.2455357,2.15625 L10.2455357,2.10267857 C10.2723216,1.99553518 10.28125,1.88839339 10.2723214,1.78125 L10.2723214,1.76785714 C10.2544642,1.58928482 10.1964291,1.44196487 10.0982143,1.32589286 C9.99999951,1.19196362 9.86607228,1.09821455 9.69642857,1.04464286 C9.52678487,0.991071161 9.30357281,0.964285714 9.02678571,0.964285714 L3.42857143,0.964285714 L3.44196429,6.16071429 C3.85268063,6.35714384 4.16964174,6.63392679 4.39285714,6.99107143 L4.40625,6.99107143 C4.57589371,7.26785853 4.81249848,7.67410446 5.11607143,8.20982143 L5.12946429,8.23660714 C5.1383929,8.24553576 5.20089228,8.35267754 5.31696429,8.55803571 C5.3258929,8.57589295 5.34374987,8.60491051 5.37053571,8.64508929 C5.39732156,8.68526806 5.41517853,8.71428562 5.42410714,8.73214286 C5.54910777,8.94642964 5.60267866,9.17410594 5.58482143,9.41517857 C5.57589281,9.57589366 5.56696433,9.8303554 5.55803571,10.1785714 L5.55803571,10.1919643 C5.55803571,10.3169649 5.55357147,10.4821418 5.54464286,10.6875 C5.54464286,10.7500003 5.55357134,10.7946427 5.57142857,10.8214286 C5.59821442,10.857143 5.64285683,10.892857 5.70535714,10.9285714 C5.848215,11.0000004 5.99107071,11.0357143 6.13392857,11.0357143 C6.26785781,11.0357143 6.40624929,11.0044646 6.54910714,10.9419643 C6.6383933,10.9062498 6.70089268,10.834822 6.73660714,10.7276786 C6.74553576,10.71875 6.76562484,10.6741075 6.796875,10.59375 C6.82812516,10.5133925 6.84821424,10.4508931 6.85714286,10.40625 C7.00000071,10.0491054 7.1071425,9.76785817 7.17857143,9.5625 C7.28571482,9.25892705 7.2946433,8.89285929 7.20535714,8.46428571 C7.17857129,8.31249924 7.14732161,8.12053688 7.11160714,7.88839286 L6.92410714,6.76339286 L10.3928571,6.76339286 C10.5089292,6.76339286 10.6249994,6.74553589 10.7410714,6.70982143 C10.8750007,6.65624973 10.9642855,6.53571522 11.0089286,6.34821429 C11.0178572,6.34821429 11.0223214,6.3392858 11.0223214,6.32142857 C11.03125,6.30357134 11.0357143,6.29017862 11.0357143,6.28125 Z" id="icon-dislike" fill="#0B5B99"></path>
                <path d="M12,18.4285714 L11.9732143,18.4955357 L11.9732143,18.5357143 L11.9464286,18.5892857 C11.8214279,19.1071454 11.526788,19.450892 11.0625,19.6205357 C10.8482132,19.6919646 10.6250012,19.7276786 10.3928571,19.7276786 L8.0625,19.7276786 C8.08928585,19.9241081 8.12053554,20.107142 8.15625,20.2767857 C8.27232201,20.875003 8.2500008,21.4107119 8.08928571,21.8839286 C8.00892817,22.0982154 7.90178638,22.388391 7.76785714,22.7544643 L7.64732143,23.0758929 C7.50446357,23.4330375 7.26339455,23.6874992 6.92410714,23.8392857 C6.66517728,23.9464291 6.40178705,24 6.13392857,24 C5.83035563,24 5.53571571,23.9241079 5.25,23.7723214 C4.79464058,23.5312488 4.57142853,23.1607168 4.58035714,22.6607143 C4.58928576,22.4553561 4.59375,22.2946434 4.59375,22.1785714 C4.60267862,21.8035696 4.6116071,21.5267866 4.62053571,21.3482143 C4.62053571,21.3035712 4.61160723,21.2589288 4.59375,21.2142857 C4.56696415,21.1696426 4.52008962,21.0892863 4.453125,20.9732143 C4.38616038,20.8571423 4.33482161,20.7678575 4.29910714,20.7053571 C3.98660558,20.1607116 3.7500008,19.7589299 3.58928571,19.5 C3.48214232,19.3392849 3.328126,19.2031256 3.12723214,19.0915179 C2.92633828,18.9799102 2.78125045,18.9151787 2.69196429,18.8973214 C2.60267813,18.8794642 2.53125027,18.8660715 2.47767857,18.8571429 L0.964285714,18.8571429 C0.696427232,18.8571429 0.468750938,18.7633938 0.28125,18.5758929 C0.0937490625,18.3883919 0,18.1607156 0,17.8928571 L0,12.9642857 C0,12.6964272 0.0937490625,12.4687509 0.28125,12.28125 C0.468750938,12.0937491 0.696427232,12 0.964285714,12 L9.02678571,12 C9.40178759,12 9.72321295,12.0446424 9.99107143,12.1339286 C10.3482161,12.2500006 10.6361596,12.4464272 10.8549107,12.7232143 C11.0736618,13.0000014 11.1964284,13.3214267 11.2232143,13.6875 C11.2500001,13.9017868 11.2410717,14.1071419 11.1964286,14.3035714 C11.419644,14.6607161 11.5223215,15.0312481 11.5044643,15.4151786 C11.4955357,15.5312506 11.4732145,15.6428566 11.4375,15.75 C11.6607154,16.0714302 11.7633929,16.4107125 11.7455357,16.7678571 C11.7455357,16.910715 11.7232145,17.0446422 11.6785714,17.1696429 C11.8035721,17.3482152 11.8928569,17.5446418 11.9464286,17.7589286 L12,17.8392857 L12,18.4285714 Z M2.46428571,17.8928571 L2.46428571,12.9642857 L0.964285714,12.9642857 L0.964285714,17.8928571 L2.46428571,17.8928571 Z M11.0357143,18.28125 L11.0357143,18.09375 L11.0089286,17.9866071 C10.9821427,17.8883924 10.9419646,17.7946433 10.8883929,17.7053571 L10.6339286,17.3303571 L10.7544643,16.9017857 C10.7723215,16.848214 10.78125,16.7901789 10.78125,16.7276786 C10.7901786,16.5758921 10.741072,16.4285721 10.6339286,16.2857143 L10.3928571,15.9107143 L10.5133929,15.46875 C10.5312501,15.4330355 10.5401786,15.3928574 10.5401786,15.3482143 C10.5491072,15.1785706 10.4955363,15.0044652 10.3794643,14.8258929 L10.1651786,14.4910714 L10.2455357,14.15625 L10.2455357,14.1026786 C10.2723216,13.9955352 10.28125,13.8883934 10.2723214,13.78125 L10.2723214,13.7678571 C10.2544642,13.5892848 10.1964291,13.4419649 10.0982143,13.3258929 C9.99999951,13.1919636 9.86607228,13.0982146 9.69642857,13.0446429 C9.52678487,12.9910712 9.30357281,12.9642857 9.02678571,12.9642857 L3.42857143,12.9642857 L3.44196429,18.1607143 C3.85268063,18.3571438 4.16964174,18.6339268 4.39285714,18.9910714 L4.40625,18.9910714 C4.57589371,19.2678585 4.81249848,19.6741045 5.11607143,20.2098214 L5.12946429,20.2366071 C5.1383929,20.2455358 5.20089228,20.3526775 5.31696429,20.5580357 C5.3258929,20.5758929 5.34374987,20.6049105 5.37053571,20.6450893 C5.39732156,20.6852681 5.41517853,20.7142856 5.42410714,20.7321429 C5.54910777,20.9464296 5.60267866,21.1741059 5.58482143,21.4151786 C5.57589281,21.5758937 5.56696433,21.8303554 5.55803571,22.1785714 L5.55803571,22.1919643 C5.55803571,22.3169649 5.55357147,22.4821418 5.54464286,22.6875 C5.54464286,22.7500003 5.55357134,22.7946427 5.57142857,22.8214286 C5.59821442,22.857143 5.64285683,22.892857 5.70535714,22.9285714 C5.848215,23.0000004 5.99107071,23.0357143 6.13392857,23.0357143 C6.26785781,23.0357143 6.40624929,23.0044646 6.54910714,22.9419643 C6.6383933,22.9062498 6.70089268,22.834822 6.73660714,22.7276786 C6.74553576,22.71875 6.76562484,22.6741075 6.796875,22.59375 C6.82812516,22.5133925 6.84821424,22.4508931 6.85714286,22.40625 C7.00000071,22.0491054 7.1071425,21.7678582 7.17857143,21.5625 C7.28571482,21.2589271 7.2946433,20.8928593 7.20535714,20.4642857 C7.17857129,20.3124992 7.14732161,20.1205369 7.11160714,19.8883929 L6.92410714,18.7633929 L10.3928571,18.7633929 C10.5089292,18.7633929 10.6249994,18.7455359 10.7410714,18.7098214 C10.8750007,18.6562497 10.9642855,18.5357152 11.0089286,18.3482143 C11.0178572,18.3482143 11.0223214,18.3392858 11.0223214,18.3214286 C11.03125,18.3035713 11.0357143,18.2901786 11.0357143,18.28125 Z" id="icon-dislike-copy" fill="#8C8C8C"></path>
                <path d="M12,30.4285714 L11.9732143,30.4955357 L11.9732143,30.5357143 L11.9464286,30.5892857 C11.8214279,31.1071454 11.526788,31.450892 11.0625,31.6205357 C10.8482132,31.6919646 10.6250012,31.7276786 10.3928571,31.7276786 L8.0625,31.7276786 C8.08928585,31.9241081 8.12053554,32.107142 8.15625,32.2767857 C8.27232201,32.875003 8.2500008,33.4107119 8.08928571,33.8839286 C8.00892817,34.0982154 7.90178638,34.388391 7.76785714,34.7544643 L7.64732143,35.0758929 C7.50446357,35.4330375 7.26339455,35.6874992 6.92410714,35.8392857 C6.66517728,35.9464291 6.40178705,36 6.13392857,36 C5.83035563,36 5.53571571,35.9241079 5.25,35.7723214 C4.79464058,35.5312488 4.57142853,35.1607168 4.58035714,34.6607143 C4.58928576,34.4553561 4.59375,34.2946434 4.59375,34.1785714 C4.60267862,33.8035696 4.6116071,33.5267866 4.62053571,33.3482143 C4.62053571,33.3035712 4.61160723,33.2589288 4.59375,33.2142857 C4.56696415,33.1696426 4.52008962,33.0892863 4.453125,32.9732143 C4.38616038,32.8571423 4.33482161,32.7678575 4.29910714,32.7053571 C3.98660558,32.1607116 3.7500008,31.7589299 3.58928571,31.5 C3.48214232,31.3392849 3.328126,31.2031256 3.12723214,31.0915179 C2.92633828,30.9799102 2.78125045,30.9151787 2.69196429,30.8973214 C2.60267813,30.8794642 2.53125027,30.8660715 2.47767857,30.8571429 L0.964285714,30.8571429 C0.696427232,30.8571429 0.468750938,30.7633938 0.28125,30.5758929 C0.0937490625,30.3883919 0,30.1607156 0,29.8928571 L0,24.9642857 C0,24.6964272 0.0937490625,24.4687509 0.28125,24.28125 C0.468750938,24.0937491 0.696427232,24 0.964285714,24 L9.02678571,24 C9.40178759,24 9.72321295,24.0446424 9.99107143,24.1339286 C10.3482161,24.2500006 10.6361596,24.4464272 10.8549107,24.7232143 C11.0736618,25.0000014 11.1964284,25.3214267 11.2232143,25.6875 C11.2500001,25.9017868 11.2410717,26.1071419 11.1964286,26.3035714 C11.419644,26.6607161 11.5223215,27.0312481 11.5044643,27.4151786 C11.4955357,27.5312506 11.4732145,27.6428566 11.4375,27.75 C11.6607154,28.0714302 11.7633929,28.4107125 11.7455357,28.7678571 C11.7455357,28.910715 11.7232145,29.0446422 11.6785714,29.1696429 C11.8035721,29.3482152 11.8928569,29.5446418 11.9464286,29.7589286 L12,29.8392857 L12,30.4285714 Z M2.46428571,29.8928571 L2.46428571,24.9642857 L0.964285714,24.9642857 L0.964285714,29.8928571 L2.46428571,29.8928571 Z M11.0357143,30.28125 L11.0357143,30.09375 L11.0089286,29.9866071 C10.9821427,29.8883924 10.9419646,29.7946433 10.8883929,29.7053571 L10.6339286,29.3303571 L10.7544643,28.9017857 C10.7723215,28.848214 10.78125,28.7901789 10.78125,28.7276786 C10.7901786,28.5758921 10.741072,28.4285721 10.6339286,28.2857143 L10.3928571,27.9107143 L10.5133929,27.46875 C10.5312501,27.4330355 10.5401786,27.3928574 10.5401786,27.3482143 C10.5491072,27.1785706 10.4955363,27.0044652 10.3794643,26.8258929 L10.1651786,26.4910714 L10.2455357,26.15625 L10.2455357,26.1026786 C10.2723216,25.9955352 10.28125,25.8883934 10.2723214,25.78125 L10.2723214,25.7678571 C10.2544642,25.5892848 10.1964291,25.4419649 10.0982143,25.3258929 C9.99999951,25.1919636 9.86607228,25.0982146 9.69642857,25.0446429 C9.52678487,24.9910712 9.30357281,24.9642857 9.02678571,24.9642857 L3.42857143,24.9642857 L3.44196429,30.1607143 C3.85268063,30.3571438 4.16964174,30.6339268 4.39285714,30.9910714 L4.40625,30.9910714 C4.57589371,31.2678585 4.81249848,31.6741045 5.11607143,32.2098214 L5.12946429,32.2366071 C5.1383929,32.2455358 5.20089228,32.3526775 5.31696429,32.5580357 C5.3258929,32.5758929 5.34374987,32.6049105 5.37053571,32.6450893 C5.39732156,32.6852681 5.41517853,32.7142856 5.42410714,32.7321429 C5.54910777,32.9464296 5.60267866,33.1741059 5.58482143,33.4151786 C5.57589281,33.5758937 5.56696433,33.8303554 5.55803571,34.1785714 L5.55803571,34.1919643 C5.55803571,34.3169649 5.55357147,34.4821418 5.54464286,34.6875 C5.54464286,34.7500003 5.55357134,34.7946427 5.57142857,34.8214286 C5.59821442,34.857143 5.64285683,34.892857 5.70535714,34.9285714 C5.848215,35.0000004 5.99107071,35.0357143 6.13392857,35.0357143 C6.26785781,35.0357143 6.40624929,35.0044646 6.54910714,34.9419643 C6.6383933,34.9062498 6.70089268,34.834822 6.73660714,34.7276786 C6.74553576,34.71875 6.76562484,34.6741075 6.796875,34.59375 C6.82812516,34.5133925 6.84821424,34.4508931 6.85714286,34.40625 C7.00000071,34.0491054 7.1071425,33.7678582 7.17857143,33.5625 C7.28571482,33.2589271 7.2946433,32.8928593 7.20535714,32.4642857 C7.17857129,32.3124992 7.14732161,32.1205369 7.11160714,31.8883929 L6.92410714,30.7633929 L10.3928571,30.7633929 C10.5089292,30.7633929 10.6249994,30.7455359 10.7410714,30.7098214 C10.8750007,30.6562497 10.9642855,30.5357152 11.0089286,30.3482143 C11.0178572,30.3482143 11.0223214,30.3392858 11.0223214,30.3214286 C11.03125,30.3035713 11.0357143,30.2901786 11.0357143,30.28125 Z" id="icon-dislike-copy" fill="#532CC1"></path>
            </g>
        </g>
    </g>
</svg>